<?xml version="1.0" encoding="UTF-8"?>
<CustomTab xmlns="http://soap.sforce.com/2006/04/metadata">
    <auraComponent>MyEngagements</auraComponent>
    <label>Engagements</label>
    <mobileReady>false</mobileReady>
    <motif>Custom48: Trophy</motif>
</CustomTab>
