<?xml version="1.0" encoding="UTF-8"?>
<CustomTab xmlns="http://soap.sforce.com/2006/04/metadata">
    <customObject>true</customObject>
    <description>Custom tab for the opportunity custom object.</description>
    <mobileReady>false</mobileReady>
    <motif>Custom50: Big top</motif>
</CustomTab>
